{
  "users": [
    {
      "username": "naveen",
      "password": "12345",
      "fname": "Naveen",
      "lname": "Kumar",
      "id": 1
    },
    {
      "username": "admin",
      "password": "admin",
      "fname": "admin",
      "lname": "admin",
      "id": 2
    },
    {
      "username": "radha",
      "password": "radha",
      "fname": "radha",
      "lname": "radha",
      "id": 3
    },
    {
      "username": "gowtham",
      "password": "123456",
      "fname": "gowtham",
      "lname": "gowtham",
      "id": 4
    },
    {
      "username": "kumar",
      "password": "kumar",
      "fname": "kumar",
      "lname": "kumar",
      "id": 5
    },
    {
      "username": "test",
      "password": "test",
      "fname": "test",
      "lname": "test",
      "id": 6
    },
    {
      "username": "google",
      "password": "google",
      "fname": "google",
      "lname": "google",
      "id": 7
    }
  ],
  "products": [
    {
      "id": 1,
      "name": "American Bulldog",
      "description": "The American Bulldog is stocky and muscular, but also agile and built for chasing down stray cattle and helping with farm work. In fact, some are known to jump six feet or more into the air."
    },
    {
      "id": 2,
      "name": "American Leopard Hound",
      "description": "he American Leopard Hound is a purebred dog whose ancestors came from Mexico by way of Spanish conquistadors who sailed to North America. They are energetic, sociable, and intelligent pooches who possess all-around great traits."
    },
    {
      "id": 3,
      "name": "Australian Cattle Dog",
      "description": "The Australian Cattle Dog is an extremely intelligent, active, and sturdy dog breed. Developed by Australian settlers to handle herds of cattle on expansive ranches, he’s still used today as a herding dog. He thrives on having a job to do and on being part of all family activities."
    },
    {
      "id": 4,
      "name": "Belgian Sheepdog",
      "description": "This medium-size herding dog breed originated in Belgium where he was used to herd sheep. He later graduated to police work, and today his versatility makes him suitable for many types of work and dog sports. He’s alert, devoted, and protective."
    },
    {
      "id": 5,
      "name": "Dutch Shepherd",
      "description": "Originally used by shepherds in the Netherlands for all-around farm work, the Dutch Shepherd is an intelligent, highly trainable jack-of-all-trades. In modern times, they find jobs as police dogs, service animals, and family-friendly companions."
    },
    {
      "id": 6,
      "name": "English Setter",
      "description": "The English Setter dog breed was named for these dogs’ practice of “setting,” or crouching low, when they found birds so hunters could throw their nets over them. After the development of the gun, breeders developed the dog so they would stand in the more traditional Pointer style."
    },
    {
      "id": 7,
      "name": "German Sheprador",
      "description": "The German Sheprador is a mixed breed dog — a cross between the German Shepherd and Labrador Retriever dog breeds. Large, energetic, and loyal, these pups inherited some of the best qualities from both of their parents."
    }
  ],
  "carts": [
    {
      "id": 1,
      "userId": 1,
      "cart": []
    },
    {
      "id": 2,
      "userId": 2,
      "cart": []
    },
    {
      "userId": 3,
      "cart": [],
      "id": 3
    },
    {
      "userId": 4,
      "cart": [],
      "id": 4
    },
    {
      "id": 5,
      "cart": [
        {
          "id": 3,
          "name": "Australian Cattle Dog",
          "description": "The Australian Cattle Dog is an extremely intelligent, active, and sturdy dog breed. Developed by Australian settlers to handle herds of cattle on expansive ranches, he’s still used today as a herding dog. He thrives on having a job to do and on being part of all family activities."
        },
        {
          "id": 2,
          "name": "American Leopard Hound",
          "description": "he American Leopard Hound is a purebred dog whose ancestors came from Mexico by way of Spanish conquistadors who sailed to North America. They are energetic, sociable, and intelligent pooches who possess all-around great traits."
        }
      ],
      "userId": 5
    },
    {
      "userId": 6,
      "cart": [],
      "id": 6
    },
    {
      "id": 7,
      "userId": 7,
      "cart": []
    }
  ],
  "orders": [
    {
      "userId": 1,
      "items": [
        {
          "id": 2,
          "name": "American Leopard Hound",
          "description": "he American Leopard Hound is a purebred dog whose ancestors came from Mexico by way of Spanish conquistadors who sailed to North America. They are energetic, sociable, and intelligent pooches who possess all-around great traits."
        },
        {
          "id": 3,
          "name": "Australian Cattle Dog",
          "description": "The Australian Cattle Dog is an extremely intelligent, active, and sturdy dog breed. Developed by Australian settlers to handle herds of cattle on expansive ranches, he’s still used today as a herding dog. He thrives on having a job to do and on being part of all family activities."
        }
      ],
      "id": 1
    },
    {
      "userId": 1,
      "items": [
        {
          "id": 2,
          "name": "American Leopard Hound",
          "description": "he American Leopard Hound is a purebred dog whose ancestors came from Mexico by way of Spanish conquistadors who sailed to North America. They are energetic, sociable, and intelligent pooches who possess all-around great traits."
        },
        {
          "id": 3,
          "name": "Australian Cattle Dog",
          "description": "The Australian Cattle Dog is an extremely intelligent, active, and sturdy dog breed. Developed by Australian settlers to handle herds of cattle on expansive ranches, he’s still used today as a herding dog. He thrives on having a job to do and on being part of all family activities."
        }
      ],
      "id": 2
    },
    {
      "userId": 1,
      "items": [
        {
          "id": 2,
          "name": "American Leopard Hound",
          "description": "he American Leopard Hound is a purebred dog whose ancestors came from Mexico by way of Spanish conquistadors who sailed to North America. They are energetic, sociable, and intelligent pooches who possess all-around great traits."
        },
        {
          "id": 3,
          "name": "Australian Cattle Dog",
          "description": "The Australian Cattle Dog is an extremely intelligent, active, and sturdy dog breed. Developed by Australian settlers to handle herds of cattle on expansive ranches, he’s still used today as a herding dog. He thrives on having a job to do and on being part of all family activities."
        }
      ],
      "id": 3
    },
    {
      "userId": 1,
      "items": [
        {
          "id": 3,
          "name": "Australian Cattle Dog",
          "description": "The Australian Cattle Dog is an extremely intelligent, active, and sturdy dog breed. Developed by Australian settlers to handle herds of cattle on expansive ranches, he’s still used today as a herding dog. He thrives on having a job to do and on being part of all family activities."
        },
        {
          "id": 2,
          "name": "American Leopard Hound",
          "description": "he American Leopard Hound is a purebred dog whose ancestors came from Mexico by way of Spanish conquistadors who sailed to North America. They are energetic, sociable, and intelligent pooches who possess all-around great traits."
        }
      ],
      "id": 4
    },
    {
      "userId": 1,
      "items": [
        {
          "id": 3,
          "name": "Australian Cattle Dog",
          "description": "The Australian Cattle Dog is an extremely intelligent, active, and sturdy dog breed. Developed by Australian settlers to handle herds of cattle on expansive ranches, he’s still used today as a herding dog. He thrives on having a job to do and on being part of all family activities."
        }
      ],
      "id": 5
    },
    {
      "userId": 5,
      "items": [
        {
          "id": 3,
          "name": "Australian Cattle Dog",
          "description": "The Australian Cattle Dog is an extremely intelligent, active, and sturdy dog breed. Developed by Australian settlers to handle herds of cattle on expansive ranches, he’s still used today as a herding dog. He thrives on having a job to do and on being part of all family activities."
        },
        {
          "id": 1,
          "name": "American Bulldog",
          "description": "The American Bulldog is stocky and muscular, but also agile and built for chasing down stray cattle and helping with farm work. In fact, some are known to jump six feet or more into the air."
        }
      ],
      "id": 6
    },
    {
      "userId": 2,
      "items": [
        {
          "id": 3,
          "name": "Australian Cattle Dog",
          "description": "The Australian Cattle Dog is an extremely intelligent, active, and sturdy dog breed. Developed by Australian settlers to handle herds of cattle on expansive ranches, he’s still used today as a herding dog. He thrives on having a job to do and on being part of all family activities."
        },
        {
          "id": 2,
          "name": "American Leopard Hound",
          "description": "he American Leopard Hound is a purebred dog whose ancestors came from Mexico by way of Spanish conquistadors who sailed to North America. They are energetic, sociable, and intelligent pooches who possess all-around great traits."
        },
        {
          "id": 4,
          "name": "Belgian Sheepdog",
          "description": "This medium-size herding dog breed originated in Belgium where he was used to herd sheep. He later graduated to police work, and today his versatility makes him suitable for many types of work and dog sports. He’s alert, devoted, and protective."
        }
      ],
      "id": 7
    },
    {
      "userId": 2,
      "items": [
        {
          "id": 1,
          "name": "American Bulldog",
          "description": "The American Bulldog is stocky and muscular, but also agile and built for chasing down stray cattle and helping with farm work. In fact, some are known to jump six feet or more into the air."
        }
      ],
      "id": 8
    },
    {
      "userId": 2,
      "items": [
        {
          "id": 2,
          "name": "American Leopard Hound",
          "description": "he American Leopard Hound is a purebred dog whose ancestors came from Mexico by way of Spanish conquistadors who sailed to North America. They are energetic, sociable, and intelligent pooches who possess all-around great traits."
        },
        {
          "id": 5,
          "name": "Dutch Shepherd",
          "description": "Originally used by shepherds in the Netherlands for all-around farm work, the Dutch Shepherd is an intelligent, highly trainable jack-of-all-trades. In modern times, they find jobs as police dogs, service animals, and family-friendly companions."
        }
      ],
      "id": 9
    },
    {
      "userId": 1,
      "items": [
        {
          "id": 2,
          "name": "American Leopard Hound",
          "description": "he American Leopard Hound is a purebred dog whose ancestors came from Mexico by way of Spanish conquistadors who sailed to North America. They are energetic, sociable, and intelligent pooches who possess all-around great traits."
        },
        {
          "id": 3,
          "name": "Australian Cattle Dog",
          "description": "The Australian Cattle Dog is an extremely intelligent, active, and sturdy dog breed. Developed by Australian settlers to handle herds of cattle on expansive ranches, he’s still used today as a herding dog. He thrives on having a job to do and on being part of all family activities."
        },
        {
          "id": 1,
          "name": "American Bulldog",
          "description": "The American Bulldog is stocky and muscular, but also agile and built for chasing down stray cattle and helping with farm work. In fact, some are known to jump six feet or more into the air."
        }
      ],
      "id": 10
    },
    {
      "userId": 7,
      "items": [
        {
          "id": 1,
          "name": "American Bulldog",
          "description": "The American Bulldog is stocky and muscular, but also agile and built for chasing down stray cattle and helping with farm work. In fact, some are known to jump six feet or more into the air."
        }
      ],
      "id": 11
    },
    {
      "userId": 7,
      "items": [
        {
          "id": 2,
          "name": "American Leopard Hound",
          "description": "he American Leopard Hound is a purebred dog whose ancestors came from Mexico by way of Spanish conquistadors who sailed to North America. They are energetic, sociable, and intelligent pooches who possess all-around great traits."
        },
        {
          "id": 3,
          "name": "Australian Cattle Dog",
          "description": "The Australian Cattle Dog is an extremely intelligent, active, and sturdy dog breed. Developed by Australian settlers to handle herds of cattle on expansive ranches, he’s still used today as a herding dog. He thrives on having a job to do and on being part of all family activities."
        },
        {
          "id": 4,
          "name": "Belgian Sheepdog",
          "description": "This medium-size herding dog breed originated in Belgium where he was used to herd sheep. He later graduated to police work, and today his versatility makes him suitable for many types of work and dog sports. He’s alert, devoted, and protective."
        }
      ],
      "id": 12
    },
    {
      "userId": 7,
      "items": [
        {
          "id": 1,
          "name": "American Bulldog",
          "description": "The American Bulldog is stocky and muscular, but also agile and built for chasing down stray cattle and helping with farm work. In fact, some are known to jump six feet or more into the air."
        }
      ],
      "id": 13
    },
    {
      "userId": 1,
      "items": [
        {
          "id": 2,
          "name": "American Leopard Hound",
          "description": "he American Leopard Hound is a purebred dog whose ancestors came from Mexico by way of Spanish conquistadors who sailed to North America. They are energetic, sociable, and intelligent pooches who possess all-around great traits."
        },
        {
          "id": 3,
          "name": "Australian Cattle Dog",
          "description": "The Australian Cattle Dog is an extremely intelligent, active, and sturdy dog breed. Developed by Australian settlers to handle herds of cattle on expansive ranches, he’s still used today as a herding dog. He thrives on having a job to do and on being part of all family activities."
        }
      ],
      "id": 14
    },
    {
      "userId": 1,
      "items": [
        {
          "id": 1,
          "name": "American Bulldog",
          "description": "The American Bulldog is stocky and muscular, but also agile and built for chasing down stray cattle and helping with farm work. In fact, some are known to jump six feet or more into the air."
        },
        {
          "id": 2,
          "name": "American Leopard Hound",
          "description": "he American Leopard Hound is a purebred dog whose ancestors came from Mexico by way of Spanish conquistadors who sailed to North America. They are energetic, sociable, and intelligent pooches who possess all-around great traits."
        },
        {
          "id": 5,
          "name": "Dutch Shepherd",
          "description": "Originally used by shepherds in the Netherlands for all-around farm work, the Dutch Shepherd is an intelligent, highly trainable jack-of-all-trades. In modern times, they find jobs as police dogs, service animals, and family-friendly companions."
        }
      ],
      "id": 15
    },
    {
      "userId": 1,
      "items": [
        {
          "id": 2,
          "name": "American Leopard Hound",
          "description": "he American Leopard Hound is a purebred dog whose ancestors came from Mexico by way of Spanish conquistadors who sailed to North America. They are energetic, sociable, and intelligent pooches who possess all-around great traits."
        },
        {
          "id": 3,
          "name": "Australian Cattle Dog",
          "description": "The Australian Cattle Dog is an extremely intelligent, active, and sturdy dog breed. Developed by Australian settlers to handle herds of cattle on expansive ranches, he’s still used today as a herding dog. He thrives on having a job to do and on being part of all family activities."
        },
        {
          "id": 4,
          "name": "Belgian Sheepdog",
          "description": "This medium-size herding dog breed originated in Belgium where he was used to herd sheep. He later graduated to police work, and today his versatility makes him suitable for many types of work and dog sports. He’s alert, devoted, and protective."
        }
      ],
      "id": 16
    },
    {
      "userId": 1,
      "items": [
        {
          "id": 3,
          "name": "Australian Cattle Dog",
          "description": "The Australian Cattle Dog is an extremely intelligent, active, and sturdy dog breed. Developed by Australian settlers to handle herds of cattle on expansive ranches, he’s still used today as a herding dog. He thrives on having a job to do and on being part of all family activities."
        }
      ],
      "id": 17
    },
    {
      "userId": 1,
      "items": [
        {
          "id": 1,
          "name": "American Bulldog",
          "description": "The American Bulldog is stocky and muscular, but also agile and built for chasing down stray cattle and helping with farm work. In fact, some are known to jump six feet or more into the air."
        },
        {
          "id": 2,
          "name": "American Leopard Hound",
          "description": "he American Leopard Hound is a purebred dog whose ancestors came from Mexico by way of Spanish conquistadors who sailed to North America. They are energetic, sociable, and intelligent pooches who possess all-around great traits."
        }
      ],
      "id": 18
    },
    {
      "userId": 1,
      "items": [
        {
          "id": 4,
          "name": "Belgian Sheepdog",
          "description": "This medium-size herding dog breed originated in Belgium where he was used to herd sheep. He later graduated to police work, and today his versatility makes him suitable for many types of work and dog sports. He’s alert, devoted, and protective."
        },
        {
          "id": 1,
          "name": "American Bulldog",
          "description": "The American Bulldog is stocky and muscular, but also agile and built for chasing down stray cattle and helping with farm work. In fact, some are known to jump six feet or more into the air."
        },
        {
          "id": 2,
          "name": "American Leopard Hound",
          "description": "he American Leopard Hound is a purebred dog whose ancestors came from Mexico by way of Spanish conquistadors who sailed to North America. They are energetic, sociable, and intelligent pooches who possess all-around great traits."
        }
      ],
      "id": 19
    },
    {
      "userId": 1,
      "items": [
        {
          "id": 2,
          "name": "American Leopard Hound",
          "description": "he American Leopard Hound is a purebred dog whose ancestors came from Mexico by way of Spanish conquistadors who sailed to North America. They are energetic, sociable, and intelligent pooches who possess all-around great traits."
        }
      ],
      "id": 20
    }
  ]
}